cust_id,outlet,sal_off,sal_reg,sal_rep,material_id,quantity,price,sal_rev,tax%
CUST01,OLDCITY,OLDCITY,HYDERABAD,ARYA,MAT001,12,10,,
CUST02,KOTI,KOTI,HYDERABAD,HEMU,MAT002,11,20,,
CUST03,CHARMINAR,CHARMINAR,HYDERABAD,PALLAVI,MAT003,10,30,,
CUST04,DSNR,DSNR,HYDERABAD,SAMPU,MAT004,7,40,,
CUST05,KOTTAPET,KOTTAPET,HYDERABAD,DAS,MAT005,1,50,,
CUST06,UPPAL,UPPAL,HYDERABAD,SITA,MAT006,3,60,,
CUST07,BEGUMPET,BEGUMPET,HYDERABAD,SHIVA,MAT007,5,70,,
CUST08,WHITEFIELD,WHITEFIELD,HYDERABAD,BRAMHA,MAT008,7,80,,
CUST09,HEBBAL,HEBBAL,HYDERABAD,VISHNU,MAT009,9,90,,
CUST10,MAGESTIC,MAGESTIC,HYDERABAD,DIWAKAR,MAT010,2,100,,
CUST11,MGROAD,MGROAD,HYDERABAD,ARYA,MAT011,4,200,,
CUST12,OLDCITY,OLDCITY,HYDERABAD,HEMU,MAT012,6,112,,
CUST13,KOTI,KOTI,HYDERABAD,PALLAVI,MAT013,8,223,,
CUST14,CHARMINAR,CHARMINAR,HYDERABAD,SAMPU,MAT014,12,50,,
CUST15,DSNR,DSNR,HYDERABAD,DAS,MAT015,11,60,,
CUST16,KOTTAPET,KOTTAPET,HYDERABAD,SITA,MAT016,10,70,,
CUST17,UPPAL,UPPAL,HYDERABAD,SHIVA,MAT017,7,80,,
CUST18,BEGUMPET,BEGUMPET,HYDERABAD,BRAMHA,MAT018,1,90,,
CUST19,WHITEFIELD,WHITEFIELD,HYDERABAD,VISHNU,MAT019,3,100,,
CUST20,HEBBAL,HEBBAL,HYDERABAD,DIWAKAR,MAT020,5,200,,
CUST21,MAGESTIC,MAGESTIC,HYDERABAD,ARYA,MAT021,7,112,,
CUST22,MGROAD,MGROAD,HYDERABAD,HEMU,MAT022,9,223,,
CUST23,OLDCITY,OLDCITY,HYDERABAD,PALLAVI,MAT023,2,60,,
CUST24,KOTI,KOTI,HYDERABAD,SAMPU,MAT024,4,70,,
CUST25,CHARMINAR,CHARMINAR,HYDERABAD,DAS,MAT025,6,80,,
CUST26,DSNR,DSNR,HYDERABAD,SITA,MAT026,8,90,,
CUST27,KOTTAPET,KOTTAPET,HYDERABAD,SHIVA,MAT027,12,100,,
CUST28,UPPAL,UPPAL,HYDERABAD,BRAMHA,MAT028,11,200,,
CUST29,BEGUMPET,BEGUMPET,HYDERABAD,VISHNU,MAT029,10,112,,
CUST30,WHITEFIELD,WHITEFIELD,HYDERABAD,DIWAKAR,MAT030,7,223,,
CUST31,HEBBAL,HEBBAL,HYDERABAD,ARYA,MAT031,1,50,,
CUST32,MAGESTIC,MAGESTIC,HYDERABAD,HEMU,MAT032,3,60,,
CUST33,MGROAD,MGROAD,HYDERABAD,PALLAVI,MAT033,5,70,,
CUST34,OLDCITY,OLDCITY,HYDERABAD,SAMPU,MAT034,7,40,,
CUST35,KOTI,KOTI,HYDERABAD,DAS,MAT035,9,50,,
CUST36,CHARMINAR,CHARMINAR,HYDERABAD,SITA,MAT036,2,60,,
CUST37,DSNR,DSNR,HYDERABAD,SHIVA,MAT037,4,70,,
CUST38,KOTTAPET,KOTTAPET,HYDERABAD,BRAMHA,MAT038,6,80,,
CUST39,UPPAL,UPPAL,HYDERABAD,VISHNU,MAT039,8,90,,
CUST40,BEGUMPET,BEGUMPET,HYDERABAD,DIWAKAR,MAT040,12,100,,
CUST41,WHITEFIELD,WHITEFIELD,HYDERABAD,ARYA,MAT041,11,200,,
CUST42,HEBBAL,HEBBAL,HYDERABAD,HEMU,MAT042,10,112,,
CUST43,MAGESTIC,MAGESTIC,HYDERABAD,PALLAVI,MAT043,7,223,,
CUST44,MGROAD,MGROAD,HYDERABAD,SAMPU,MAT044,1,50,,
CUST45,OLDCITY,OLDCITY,HYDERABAD,DAS,MAT045,3,60,,
CUST46,KOTI,KOTI,HYDERABAD,SITA,MAT046,5,70,,
CUST47,CHARMINAR,CHARMINAR,HYDERABAD,SHIVA,MAT047,7,80,,
CUST48,DSNR,DSNR,HYDERABAD,BRAMHA,MAT048,9,90,,
CUST49,KOTTAPET,KOTTAPET,HYDERABAD,VISHNU,MAT049,2,100,,
CUST50,UPPAL,UPPAL,HYDERABAD,DIWAKAR,MAT050,4,200,,
CUST51,BEGUMPET,BEGUMPET,HYDERABAD,ARYA,MAT051,6,112,,
CUST52,WHITEFIELD,WHITEFIELD,HYDERABAD,HEMU,MAT052,8,223,,
CUST53,HEBBAL,HEBBAL,HYDERABAD,PALLAVI,MAT053,12,60,,
CUST54,MAGESTIC,MAGESTIC,HYDERABAD,SAMPU,MAT054,11,80,,
CUST55,MGROAD,MGROAD,HYDERABAD,DAS,MAT055,10,90,,
CUST56,OLDCITY,OLDCITY,HYDERABAD,SITA,MAT056,7,100,,
CUST57,KOTI,KOTI,HYDERABAD,SHIVA,MAT057,1,200,,
CUST58,CHARMINAR,CHARMINAR,HYDERABAD,BRAMHA,MAT058,3,112,,
CUST59,DSNR,DSNR,HYDERABAD,VISHNU,MAT059,5,223,,
CUST60,KOTTAPET,KOTTAPET,HYDERABAD,DIWAKAR,MAT060,7,60,,
CUST61,UPPAL,UPPAL,HYDERABAD,ARYA,MAT061,9,70,,
CUST62,BEGUMPET,BEGUMPET,HYDERABAD,HEMU,MAT062,2,80,,
CUST63,WHITEFIELD,WHITEFIELD,HYDERABAD,PALLAVI,MAT063,4,90,,
CUST64,HEBBAL,HEBBAL,HYDERABAD,SAMPU,MAT064,6,100,,
CUST65,MAGESTIC,MAGESTIC,HYDERABAD,DAS,MAT065,8,200,,
CUST66,MGROAD,MGROAD,HYDERABAD,SITA,MAT066,12,112,,
CUST67,OLDCITY,OLDCITY,HYDERABAD,SHIVA,MAT067,11,223,,
CUST68,KOTI,KOTI,HYDERABAD,BRAMHA,MAT068,10,50,,
CUST69,CHARMINAR,CHARMINAR,HYDERABAD,VISHNU,MAT069,7,60,,
CUST70,DSNR,DSNR,HYDERABAD,DIWAKAR,MAT070,1,70,,
CUST71,KOTTAPET,KOTTAPET,HYDERABAD,ARYA,MAT071,3,40,,
CUST72,UPPAL,UPPAL,HYDERABAD,HEMU,MAT072,5,50,,
CUST73,BEGUMPET,BEGUMPET,HYDERABAD,PALLAVI,MAT073,7,60,,
CUST74,WHITEFIELD,WHITEFIELD,HYDERABAD,SAMPU,MAT074,9,70,,
CUST75,HEBBAL,HEBBAL,HYDERABAD,DAS,MAT075,2,80,,
CUST76,MAGESTIC,MAGESTIC,HYDERABAD,SITA,MAT076,4,90,,
CUST77,MGROAD,MGROAD,HYDERABAD,SHIVA,MAT077,6,100,,
CUST78,OLDCITY,OLDCITY,HYDERABAD,BRAMHA,MAT078,8,200,,
CUST79,KOTI,KOTI,HYDERABAD,VISHNU,MAT079,12,112,,
CUST80,CHARMINAR,CHARMINAR,HYDERABAD,DIWAKAR,MAT080,11,223,,
CUST81,DSNR,DSNR,HYDERABAD,ARYA,MAT081,10,50,,
CUST82,KOTTAPET,KOTTAPET,HYDERABAD,HEMU,MAT082,7,60,,
CUST83,UPPAL,UPPAL,HYDERABAD,PALLAVI,MAT083,1,70,,
CUST84,BEGUMPET,BEGUMPET,HYDERABAD,SAMPU,MAT084,3,80,,
CUST85,WHITEFIELD,WHITEFIELD,HYDERABAD,DAS,MAT085,5,90,,
CUST86,HEBBAL,HEBBAL,HYDERABAD,SITA,MAT086,7,100,,
CUST87,MAGESTIC,MAGESTIC,HYDERABAD,SHIVA,MAT087,9,200,,
CUST88,MGROAD,MGROAD,HYDERABAD,BRAMHA,MAT088,2,112,,
CUST89,OLDCITY,OLDCITY,HYDERABAD,VISHNU,MAT089,4,223,,
CUST90,KOTI,KOTI,HYDERABAD,DIWAKAR,MAT090,6,70,,
CUST91,CHARMINAR,CHARMINAR,HYDERABAD,ARYA,MAT091,8,80,,
CUST92,DSNR,DSNR,HYDERABAD,HEMU,MAT092,12,90,,
CUST93,KOTTAPET,KOTTAPET,HYDERABAD,PALLAVI,MAT093,11,100,,
CUST94,UPPAL,UPPAL,HYDERABAD,SAMPU,MAT094,10,200,,
CUST95,BEGUMPET,BEGUMPET,HYDERABAD,DAS,MAT095,7,112,,
CUST96,WHITEFIELD,WHITEFIELD,HYDERABAD,SITA,MAT096,1,223,,
CUST97,HEBBAL,HEBBAL,HYDERABAD,SHIVA,MAT097,3,50,,
CUST98,MAGESTIC,MAGESTIC,HYDERABAD,BRAMHA,MAT098,5,60,,
CUST99,MGROAD,MGROAD,HYDERABAD,VISHNU,MAT099,7,70,,
CUST100,OLDCITY,OLDCITY,HYDERABAD,DIWAKAR,MAT100,9,103,,
